[
  {
    "groupLabel": "Home",
    "analyticsTag": "Home",
    "localeKeyLabel": "home",
    "linkUrl": ""
  },
  {
    "groupLabel": "Location",
    "analyticsTag": "Location",
    "localeKeyLabel": "location",
    "linkUrl": "location",
    "navItems": [
      {
        "localeKeyLabel": "location",
        "linkUrl": "location"
      }
    ]
  },
  {
    "groupLabel": "Our Services",
    "analyticsTag": "Our Services",
    "localeKeyLabel": "our-services",
    "linkUrl": "our-services",
    "navItems": [
      {
        "localeKeyLabel": "our_services",
        "linkUrl": "our-services"
      }
    ]
  },
  {
    "groupLabel": "About Us",
    "analyticsTag": "About Us",
    "localeKeyLabel": "about-us",
    "linkUrl": "about-us",
    "navItems": [
      {
        "localeKeyLabel": "about-us",
        "linkUrl": "about-us"
      }
    ]
  },
  {
    "groupLabel": "News",
    "analyticsTag": "News",
    "localeKeyLabel": "news",
    "linkUrl": "news",
    "navItems": [
      {
        "localeKeyLabel": "news",
        "linkUrl": "news"
      }
    ]
  },
  {
    "groupLabel": "Contact",
    "analyticsTag": "Contact",
    "localeKeyLabel": "contact",
    "linkUrl": "contact",
    "navItems": [
      {
        "localeKeyLabel": "contact",
        "linkUrl": "contact"
      }
    ]
  }
]
